…
  #all_metadata <- rbind(all_metadata, df_metadata)
  
  all_metadata_single_cell <- rbind(all_metadata_single_cell, current_metadata) 
  
}

all_metadata_single_cell <- data.frame(all_metadata_single_cell)


summary <- all_metadata_single_cell %>%
  group_by(cluster_id, sample_id, region) %>%
  summarise(row_count = n(), .groups = 'drop')

# > summary
# # A tibble: 426 × 4
#    cluster_id sample_id region row_count
#    <fct>      <fct>     <chr>      <int>
#  1 Excite     H200.1023 A1C         1436
#  2 Excite     H200.1023 CgG         1250
#  3 Excite     H200.1023 M1lm         678
#  4 Excite     H200.1023 M1ul         586
#  5 Excite     H200.1023 MTGC        6498
#  6 Excite     H200.1023 S1lm         566
#  7 Excite     H200.1023 S1ul         507
#  8 Excite     H200.1023 V1C         1735
#  9 Excite     H200.1025 A1C         1167
# 10 Excite     H200.1025 CgG          653
# # ℹ 416 more rows
# # ℹ Use `print(n = ...)` to see more rows
…
